
(kicad_symbol_lib (version 20211014) (generator kicad_symbol_editor)
  (symbol "PEC11R-4215F-S0024" (pin_names (offset 1.016)) (in_bom yes) (on_board yes)
    (property "Reference" "MT" (id 0) (at -7.62 8.89 0)
      (effects (font (size 1.27 1.27)) (justify bottom left))
    )
    (property "Value" "PEC11R-4215F-S0024" (id 1) (at -7.62 -8.89 0)
      (effects (font (size 1.27 1.27)) (justify top left))
    )
    (property "Footprint" "PEC11R-4215F-S0024:XDCR_PEC11R-4215F-S0024" (id 2) (at 0 0 0)
      (effects (font (size 1.27 1.27)) (justify bottom) hide)
    )
    (property "MF" "Bourns" (id 4) (at 0 0 0)
      (effects (font (size 1.27 1.27)) (justify bottom) hide)
    )
    (property "MAXIMUM_PACKAGE_HEIGHT" "21.5 mm" (id 5) (at 0 0 0)
      (effects (font (size 1.27 1.27)) (justify bottom) hide)
    )
    (property "Package" "None" (id 6) (at 0 0 0)
      (effects (font (size 1.27 1.27)) (justify bottom) hide)
    )
    (property "Price" "None" (id 7) (at 0 0 0)
      (effects (font (size 1.27 1.27)) (justify bottom) hide)
    )
    (property "Check_prices" "https://www.snapeda.com/parts/PEC11R-4215F-S0024/Bourns/view-part/?ref=eda" (id 8) (at 0 0 0)
      (effects (font (size 1.27 1.27)) (justify bottom) hide)
    )
    (property "STANDARD" "Manufacturer Recommendations" (id 9) (at 0 0 0)
      (effects (font (size 1.27 1.27)) (justify bottom) hide)
    )
    (property "PARTREV" "Rev. 09/19" (id 10) (at 0 0 0)
      (effects (font (size 1.27 1.27)) (justify bottom) hide)
    )
    (property "SnapEDA_Link" "https://www.snapeda.com/parts/PEC11R-4215F-S0024/Bourns/view-part/?ref=snap" (id 11) (at 0 0 0)
      (effects (font (size 1.27 1.27)) (justify bottom) hide)
    )
    (property "MP" "PEC11R-4215F-S0024" (id 12) (at 0 0 0)
      (effects (font (size 1.27 1.27)) (justify bottom) hide)
    )
    (property "Purchase-URL" "https://www.snapeda.com/api/url_track_click_mouser/?unipart_id=428605&manufacturer=Bourns&part_name=PEC11R-4215F-S0024&search_term=rotary encoder" (id 13) (at 0 0 0)
      (effects (font (size 1.27 1.27)) (justify bottom) hide)
    )
    (property "Description" "\nEncoder,Rotary,24 Detents,15 mm, Shaft,Switch | Bourns PEC11R-4215F-S0024\n" (id 14) (at 0 0 0)
      (effects (font (size 1.27 1.27)) (justify bottom) hide)
    )
    (property "Availability" "In Stock" (id 15) (at 0 0 0)
      (effects (font (size 1.27 1.27)) (justify bottom) hide)
    )
    (property "MANUFACTURER" "J.W.Miller/Bourns" (id 16) (at 0 0 0)
      (effects (font (size 1.27 1.27)) (justify bottom) hide)
    )
    (symbol "PEC11R-4215F-S0024_0_0"
      (polyline
        (pts (xy -2.54 2.54) (xy 2.794 4.6736)) (stroke (width 0.1524))
      )
      (circle (center 2.54 2.54) (radius 0.3302)
        (stroke (width 0.1524)) (fill (type none))
      )
      (polyline
        (pts (xy 7.62 2.54) (xy 2.921 2.54)) (stroke (width 0.1524))
      )
      (polyline
        (pts (xy -2.54 2.54) (xy -7.62 2.54)) (stroke (width 0.1524))
      )
      (rectangle (start -7.62 -7.62) (end 7.62 7.62)
        (stroke (width 0.254)) (fill (type background))
      )
      (pin passive line (at -10.16 2.54 0) (length 2.54)
        (name "~"
          (effects (font (size 1.016 1.016)))
        )
        (number "1"
          (effects (font (size 1.016 1.016)))
        )
      )
      (pin passive line (at 10.16 2.54 180.0) (length 2.54)
        (name "~"
          (effects (font (size 1.016 1.016)))
        )
        (number "2"
          (effects (font (size 1.016 1.016)))
        )
      )
      (pin passive line (at 10.16 -2.54 180.0) (length 2.54)
        (name "A"
          (effects (font (size 1.016 1.016)))
        )
        (number "A"
          (effects (font (size 1.016 1.016)))
        )
      )
      (pin passive line (at 10.16 -5.08 180.0) (length 2.54)
        (name "B"
          (effects (font (size 1.016 1.016)))
        )
        (number "B"
          (effects (font (size 1.016 1.016)))
        )
      )
      (pin passive line (at -10.16 -2.54 0) (length 2.54)
        (name "COM"
          (effects (font (size 1.016 1.016)))
        )
        (number "COM"
          (effects (font (size 1.016 1.016)))
        )
      )
      (pin passive line (at -10.16 -5.08 0) (length 2.54)
        (name "SHIELD"
          (effects (font (size 1.016 1.016)))
        )
        (number "S1"
          (effects (font (size 1.016 1.016)))
        )
      )
      (pin passive line (at -10.16 -5.08 0) (length 2.54)
        (name "SHIELD"
          (effects (font (size 1.016 1.016)))
        )
        (number "S2"
          (effects (font (size 1.016 1.016)))
        )
      )
    )
  )
)