(kicad_pcb (version 20221018) (generator pcbnew)

  (general
    (thickness 1.6)
  )

  (paper "A4")
  (layers
    (0 "F.Cu" signal)
    (31 "B.Cu" signal)
    (32 "B.Adhes" user "B.Adhesive")
    (33 "F.Adhes" user "F.Adhesive")
    (34 "B.Paste" user)
    (35 "F.Paste" user)
    (36 "B.SilkS" user "B.Silkscreen")
    (37 "F.SilkS" user "F.Silkscreen")
    (38 "B.Mask" user)
    (39 "F.Mask" user)
    (40 "Dwgs.User" user "User.Drawings")
    (41 "Cmts.User" user "User.Comments")
    (42 "Eco1.User" user "User.Eco1")
    (43 "Eco2.User" user "User.Eco2")
    (44 "Edge.Cuts" user)
    (45 "Margin" user)
    (46 "B.CrtYd" user "B.Courtyard")
    (47 "F.CrtYd" user "F.Courtyard")
    (48 "B.Fab" user)
    (49 "F.Fab" user)
    (50 "User.1" user)
    (51 "User.2" user)
    (52 "User.3" user)
    (53 "User.4" user)
    (54 "User.5" user)
    (55 "User.6" user)
    (56 "User.7" user)
    (57 "User.8" user)
    (58 "User.9" user)
  )

  (setup
    (stackup
      (layer "F.SilkS" (type "Top Silk Screen"))
      (layer "F.Paste" (type "Top Solder Paste"))
      (layer "F.Mask" (type "Top Solder Mask") (thickness 0.01))
      (layer "F.Cu" (type "copper") (thickness 0.035))
      (layer "dielectric 1" (type "core") (thickness 1.51) (material "FR4") (epsilon_r 4.5) (loss_tangent 0.02))
      (layer "B.Cu" (type "copper") (thickness 0.035))
      (layer "B.Mask" (type "Bottom Solder Mask") (thickness 0.01))
      (layer "B.Paste" (type "Bottom Solder Paste"))
      (layer "B.SilkS" (type "Bottom Silk Screen"))
      (copper_finish "None")
      (dielectric_constraints no)
    )
    (pad_to_mask_clearance 0)
    (pcbplotparams
      (layerselection 0x0001000_7fffffff)
      (plot_on_all_layers_selection 0x0000000_00000000)
      (disableapertmacros false)
      (usegerberextensions false)
      (usegerberattributes true)
      (usegerberadvancedattributes false)
      (creategerberjobfile false)
      (dashed_line_dash_ratio 12.000000)
      (dashed_line_gap_ratio 3.000000)
      (svgprecision 4)
      (plotframeref false)
      (viasonmask false)
      (mode 1)
      (useauxorigin false)
      (hpglpennumber 1)
      (hpglpenspeed 20)
      (hpglpendiameter 15.000000)
      (dxfpolygonmode true)
      (dxfimperialunits true)
      (dxfusepcbnewfont true)
      (psnegative false)
      (psa4output false)
      (plotreference false)
      (plotvalue false)
      (plotinvisibletext false)
      (sketchpadsonfab false)
      (subtractmaskfromsilk false)
      (outputformat 1)
      (mirror false)
      (drillshape 0)
      (scaleselection 1)
      (outputdirectory "F:/FabAcademy/")
    )
  )

  (net 0 "")
  (net 1 "GND")
  (net 2 "VCC")
  (net 3 "Net-(J1-Pin_3)")
  (net 4 "Net-(J2-Pin_1)")

  (footprint "fab:PinHeader_1x03_P2.54mm_Horizontal_SMD" (layer "F.Cu")
    (tstamp 54ef86f8-161d-4d81-929e-72217bd0eea3)
    (at 105.3084 82.296 180)
    (descr "https://s3.amazonaws.com/catalogspreads-pdf/PAGE112-113%20.100%20MALE%20HDR.pdf")
    (tags "horizontal pin header SMD 2.54mm")
    (property "Sheetfile" "optical_pcb.kicad_sch")
    (property "Sheetname" "")
    (property "ki_description" "Male connector, single row")
    (property "ki_keywords" "single row male connector")
    (path "/4a6a0233-b4bc-4022-aa70-e7f8ecb17f6d")
    (attr smd)
    (fp_text reference "J1" (at -1.524 -2.54) (layer "F.SilkS")
        (effects (font (size 1 1) (thickness 0.15)) (justify left))
      (tstamp cde2f4ff-53b5-4026-88e1-39c2710e44f5)
    )
    (fp_text value "microcontroller" (at 2.6 8.3) (layer "F.Fab")
        (effects (font (size 1 1) (thickness 0.15)))
      (tstamp 3452b1c2-82ea-492d-8929-85461594f96d)
    )
    (fp_text user "${REFERENCE}" (at 2.4 2.6 90) (layer "F.Fab")
        (effects (font (size 1 1) (thickness 0.15)))
      (tstamp 09a4045f-bcba-45e6-8ad9-275ebd1897a8)
    )
    (fp_line (start -1.27 -1.27) (end 0 -1.27)
      (stroke (width 0.12) (type solid)) (layer "F.SilkS") (tstamp 4637f048-dd73-4f62-8799-9f570757b98e))
    (fp_line (start 3.81 -1.27) (end 6.35 -1.27)
      (stroke (width 0.12) (type solid)) (layer "F.SilkS") (tstamp 9cddba06-0e71-48ac-9f2d-ece0ee69a2dc))
    (fp_line (start 3.81 -0.254) (end 1.27 -0.254)
      (stroke (width 0.12) (type solid)) (layer "F.SilkS") (tstamp 30382fc2-4639-4786-b241-fda0c71eb0f4))
    (fp_line (start 3.81 0.254) (end 1.27 0.254)
      (stroke (width 0.12) (type solid)) (layer "F.SilkS") (tstamp c4c753b3-f89b-417e-9c8d-a98d5a620946))
    (fp_line (start 3.81 2.286) (end 1.27 2.286)
      (stroke (width 0.12) (type solid)) (layer "F.SilkS") (tstamp 7079bc9c-f67d-4083-8106-066f2fec434f))
    (fp_line (start 3.81 2.794) (end 1.27 2.794)
      (stroke (width 0.12) (type solid)) (layer "F.SilkS") (tstamp c3d1f6ef-a266-40e7-b547-6800b5498e4b))
    (fp_line (start 3.81 4.826) (end 1.27 4.826)
      (stroke (width 0.12) (type solid)) (layer "F.SilkS") (tstamp 5adbc23b-5760-4aef-a9e1-2d4b075ea4b9))
    (fp_line (start 3.81 5.334) (end 1.27 5.334)
      (stroke (width 0.12) (type solid)) (layer "F.SilkS") (tstamp b5ce99c6-3fd9-4773-87ba-6748478cbd7d))
    (fp_line (start 3.81 6.35) (end 3.81 -1.27)
      (stroke (width 0.12) (type solid)) (layer "F.SilkS") (tstamp dc2cd77e-295e-41f4-8127-da465f3ccf40))
    (fp_line (start 6.35 -1.27) (end 6.35 6.35)
      (stroke (width 0.12) (type solid)) (layer "F.SilkS") (tstamp 424a60ed-0bdf-4695-857f-f7192d34a41f))
    (fp_line (start 6.35 6.35) (end 3.81 6.35)
      (stroke (width 0.12) (type solid)) (layer "F.SilkS") (tstamp 392aa9c1-881f-427c-a3db-1b503b4ec735))
    (fp_line (start -1.8 -1.8) (end -1.8 6.9)
      (stroke (width 0.05) (type solid)) (layer "F.CrtYd") (tstamp 7135fe25-15e5-4d9e-aaab-b6a547cef628))
    (fp_line (start -1.8 6.9) (end 6.4 6.9)
      (stroke (width 0.05) (type solid)) (layer "F.CrtYd") (tstamp fa0fdd5a-558f-45b4-9487-a0cbdc4624e4))
    (fp_line (start 6.4 -1.8) (end -1.8 -1.8)
      (stroke (width 0.05) (type solid)) (layer "F.CrtYd") (tstamp 43eead80-ea14-4031-91ee-90439e2dfcc7))
    (fp_line (start 6.4 6.9) (end 6.4 -1.8)
      (stroke (width 0.05) (type solid)) (layer "F.CrtYd") (tstamp e0016265-0c31-4143-94d6-c96b9265086a))
    (fp_line (start -0.635 -0.254) (end -0.635 0.254)
      (stroke (width 0.1) (type solid)) (layer "F.Fab") (tstamp 8f4ba1f8-4e23-46f5-93e4-36e9b2f16ba7))
    (fp_line (start -0.635 2.286) (end -0.635 2.794)
      (stroke (width 0.1) (type solid)) (layer "F.Fab") (tstamp 41f3150f-df23-4000-bca7-f99885e6b116))
    (fp_line (start -0.635 4.826) (end -0.635 5.334)
      (stroke (width 0.1) (type solid)) (layer "F.Fab") (tstamp 7102187d-c759-4d92-8111-93d799294f6c))
    (fp_line (start 3.8 -1.27) (end 6.34 -1.27)
      (stroke (width 0.1) (type solid)) (layer "F.Fab") (tstamp 1954a092-25bb-415a-84ef-7408c75cda2e))
    (fp_line (start 3.8 6.35) (end 6.35 6.35)
      (stroke (width 0.1) (type solid)) (layer "F.Fab") (tstamp 453c9bdf-6c5e-4777-8867-8815dabf7816))
    (fp_line (start 3.81 0) (end -0.635 0)
      (stroke (width 0.1) (type solid)) (layer "F.Fab") (tstamp 0cf9d212-4116-45c5-98a5-c60d1f6819a8))
    (fp_line (start 3.81 2.54) (end -0.635 2.54)
      (stroke (width 0.1) (type solid)) (layer "F.Fab") (tstamp 2ce28401-496e-4ace-ad0b-cd3eac87a835))
    (fp_line (start 3.81 5.08) (end -0.635 5.08)
      (stroke (width 0.1) (type solid)) (layer "F.Fab") (tstamp aeeb65fa-d6be-4207-aaa6-e80b841478af))
    (fp_line (start 3.81 6.35) (end 3.8 -1.27)
      (stroke (width 0.1) (type solid)) (layer "F.Fab") (tstamp 6aca999e-3943-480d-acd8-6221998e0803))
    (fp_line (start 6.34 -1.27) (end 6.35 6.35)
      (stroke (width 0.1) (type solid)) (layer "F.Fab") (tstamp dddc04d1-67a0-4285-941d-de394b518b4b))
    (pad "1" smd rect (at 0 0 180) (size 2.5 1.7) (layers "F.Cu" "F.Paste" "F.Mask")
      (net 1 "GND") (pinfunction "Pin_1") (pintype "passive") (tstamp 0ace55e6-a507-4f56-a8b0-2dd171e768c8))
    (pad "2" smd rect (at 0 2.54 180) (size 2.5 1.7) (layers "F.Cu" "F.Paste" "F.Mask")
      (net 2 "VCC") (pinfunction "Pin_2") (pintype "passive") (tstamp 1854684b-f506-4d7c-bc4d-90a6469c962c))
    (pad "3" smd rect (at 0 5.08 180) (size 2.5 1.7) (layers "F.Cu" "F.Paste" "F.Mask")
      (net 3 "Net-(J1-Pin_3)") (pinfunction "Pin_3") (pintype "passive") (tstamp 085352f2-b418-491c-8ea4-2042b4f98f6b))
    (model "$(FAB)/fab.3dshapes/Header_SMD_01x03_P2.54mm_Horizontal_Male.step"
      (offset (xyz 0 0 0))
      (scale (xyz 1 1 1))
      (rotate (xyz 0 0 0))
    )
  )

  (footprint "fab:PinSocket_1x02_P2.54mm_Vertical_SMD" (layer "F.Cu")
    (tstamp 5df3e2da-ef3d-4bda-b4ae-e3eb989b01b5)
    (at 111.5832 81.4832)
    (descr "https://media.digikey.com/pdf/Data%20Sheets/Sullins%20PDFs/NPxCxx1KFXx-RC%2010487-D.pdf")
    (tags "vertical pin socket SMD 2.54mm")
    (property "Sheetfile" "optical_pcb.kicad_sch")
    (property "Sheetname" "")
    (property "ki_description" "2 Position Header, Top or Bottom Entry Connector 0.100\" (2.54mm) Surface Mount Tin")
    (property "ki_keywords" "single row female connector Sullins Connector Solutions NPTC021KFXC-RC")
    (path "/447ecb54-1630-46db-9afa-4e3fecc768ea")
    (attr smd)
    (fp_text reference "J2" (at 0 -3.429 180) (layer "F.SilkS")
        (effects (font (size 1 1) (thickness 0.15)))
      (tstamp 6226d69e-c4fd-4ff7-a9d1-8983bdc43110)
    )
    (fp_text value "Conn_PinSocket_1x02_P2.54mm_Vertical_SMD" (at 0 3.81) (layer "F.Fab")
        (effects (font (size 1 1) (thickness 0.15)))
      (tstamp b9831a46-509c-4396-aad9-f159d4f127cd)
    )
    (fp_text user "${REFERENCE}" (at 0 0 90) (layer "F.Fab")
        (effects (font (size 1 1) (thickness 0.15)))
      (tstamp a81db44f-cedf-4c4f-b543-28e0ad9bb2f0)
    )
    (fp_line (start -1.27 2.667) (end 1.27 2.667)
      (stroke (width 0.12) (type solid)) (layer "F.SilkS") (tstamp ddb9d66f-d296-4255-a70d-9a4ff0317fb6))
    (fp_line (start 1.397 -2.667) (end 0 -2.667)
      (stroke (width 0.12) (type solid)) (layer "F.SilkS") (tstamp 98b02378-8771-4107-9478-0ccb36a8b692))
    (fp_line (start 1.397 -2.032) (end 1.397 -2.667)
      (stroke (width 0.12) (type solid)) (layer "F.SilkS") (tstamp a246efbe-e8a9-4290-8b32-052b7a9b1db2))
    (fp_line (start -2.794 -2.667) (end -2.794 2.667)
      (stroke (width 0.05) (type solid)) (layer "F.CrtYd") (tstamp d46008c2-cb78-41d0-acb7-52ae19411c25))
    (fp_line (start -2.794 2.667) (end 2.794 2.667)
      (stroke (width 0.05) (type solid)) (layer "F.CrtYd") (tstamp 85267e29-01da-48cb-b768-3a14fafd2665))
    (fp_line (start 2.794 -2.667) (end -2.794 -2.667)
      (stroke (width 0.05) (type solid)) (layer "F.CrtYd") (tstamp 637bbb97-1f9a-4637-8ffd-208d964b56ed))
    (fp_line (start 2.794 2.667) (end 2.794 -2.667)
      (stroke (width 0.05) (type solid)) (layer "F.CrtYd") (tstamp 97ec0bb9-786d-4b0f-9657-1c05ec042a0d))
    (fp_line (start -1.27 -2.54) (end 1.27 -2.54)
      (stroke (width 0.1) (type solid)) (layer "F.Fab") (tstamp 246ea0c4-e287-4450-b9d8-18cf3c9f48d8))
    (fp_line (start -1.27 2.54) (end -1.27 -2.54)
      (stroke (width 0.1) (type solid)) (layer "F.Fab") (tstamp 4cfd11fd-c2d5-438b-b116-43450cd69c14))
    (fp_line (start -1.27 2.54) (end 1.27 2.54)
      (stroke (width 0.1) (type solid)) (layer "F.Fab") (tstamp fcc8e318-a6f0-480c-999a-9e1577f3daa8))
    (fp_line (start 1.27 -2.54) (end 1.27 2.54)
      (stroke (width 0.1) (type solid)) (layer "F.Fab") (tstamp 738997d1-e388-4269-a46a-f33ec4603376))
    (pad "1" smd rect (at 1.65 -1.27) (size 2 1) (layers "F.Cu" "F.Paste" "F.Mask")
      (net 4 "Net-(J2-Pin_1)") (pinfunction "Pin_1") (pintype "passive") (tstamp ebf7e4b2-7f7f-40dc-8ede-6d89e743c663))
    (pad "2" smd rect (at -1.65 1.27) (size 2 1) (layers "F.Cu" "F.Paste" "F.Mask")
      (net 1 "GND") (pinfunction "Pin_2") (pintype "passive") (tstamp e89cde19-361b-41da-804f-a003487bdfec))
    (model "${FAB}/fab.3dshapes/Header_SMD_01x02_P2.54mm_Horizontal_Male.step"
      (offset (xyz 0 0 0))
      (scale (xyz 1 1 1))
      (rotate (xyz 0 0 0))
    )
  )

  (footprint "fab:R_1206" (layer "F.Cu")
    (tstamp d50234e7-1e6f-4a71-84e9-82569bcdf243)
    (at 119.2972 76.5556 180)
    (descr "Resistor SMD 1206, hand soldering")
    (tags "resistor 1206")
    (property "Sheetfile" "optical_pcb.kicad_sch")
    (property "Sheetname" "")
    (property "ki_description" "Resistor")
    (property "ki_keywords" "R res resistor RC1206FR-074M99L RC1206FR-07499KL RC1206FR-0749K9L RC1206FR-0749R9L RC1206FR-074R99L ERJ-8BWJR100V RC1206FR-070RL RC1206FR-071RL RC1206FR-0710RL RC1206FR-07100RL RC1206FR-07499RL RC1206FR-071KL RC1206FR-074K99L RC1206FR-0710KL RC1206FR-07100KL RC1206FR-071ML RC1206FR-0710ML PT1206FR-070R1L")
    (path "/c161a1b8-d7f2-445f-9ade-7f6019046947")
    (attr smd)
    (fp_text reference "R2" (at 0 -1.85) (layer "F.SilkS")
        (effects (font (size 1 1) (thickness 0.15)))
      (tstamp 9002a660-723c-4ca3-b6a5-9ddb27434094)
    )
    (fp_text value "R_1206" (at 0 1.9) (layer "F.Fab")
        (effects (font (size 1 1) (thickness 0.15)))
      (tstamp 88204115-8c5a-41ee-a4a9-d26b0326c88c)
    )
    (fp_text user "${REFERENCE}" (at 0 0) (layer "F.Fab")
        (effects (font (size 0.7 0.7) (thickness 0.105)))
      (tstamp ba286d8b-45b4-43cd-bf35-1db636c2274c)
    )
    (fp_line (start -1 -1.07) (end 1 -1.07)
      (stroke (width 0.12) (type solid)) (layer "F.SilkS") (tstamp 86d5bcb6-1a42-405c-b853-ad92ff59f23c))
    (fp_line (start 1 1.07) (end -1 1.07)
      (stroke (width 0.12) (type solid)) (layer "F.SilkS") (tstamp 20ce1190-f13c-4a8a-bee5-09a39530da71))
    (fp_line (start -3.25 -1.11) (end -3.25 1.1)
      (stroke (width 0.05) (type solid)) (layer "F.CrtYd") (tstamp 887fa085-0146-4b8d-9d5b-7d990a03f347))
    (fp_line (start -3.25 -1.11) (end 3.25 -1.11)
      (stroke (width 0.05) (type solid)) (layer "F.CrtYd") (tstamp 9ef0b7ae-d339-4629-a6e7-7ccd9d978c03))
    (fp_line (start 3.25 1.1) (end -3.25 1.1)
      (stroke (width 0.05) (type solid)) (layer "F.CrtYd") (tstamp 9e9d3537-2733-470b-a1e3-d00289ff6e5b))
    (fp_line (start 3.25 1.1) (end 3.25 -1.11)
      (stroke (width 0.05) (type solid)) (layer "F.CrtYd") (tstamp 8eb406ca-b996-430a-bd6c-84dc87517c7e))
    (fp_line (start -1.6 -0.8) (end 1.6 -0.8)
      (stroke (width 0.1) (type solid)) (layer "F.Fab") (tstamp 00d13f24-8ae9-4f71-8fde-a361942fb18f))
    (fp_line (start -1.6 0.8) (end -1.6 -0.8)
      (stroke (width 0.1) (type solid)) (layer "F.Fab") (tstamp fcbe56f0-238c-46d2-bf93-e9e917f2da3a))
    (fp_line (start 1.6 -0.8) (end 1.6 0.8)
      (stroke (width 0.1) (type solid)) (layer "F.Fab") (tstamp 9431facf-7049-4b49-b1dc-475d0f833766))
    (fp_line (start 1.6 0.8) (end -1.6 0.8)
      (stroke (width 0.1) (type solid)) (layer "F.Fab") (tstamp ef259d78-7c79-4076-b3e8-fb649f69dd36))
    (pad "1" smd rect (at -2 0 180) (size 2 1.7) (layers "F.Cu" "F.Paste" "F.Mask")
      (net 3 "Net-(J1-Pin_3)") (pintype "passive") (tstamp 42c9f91d-2616-46de-b4e4-5905d058d6ea))
    (pad "2" smd rect (at 2 0 180) (size 2 1.7) (layers "F.Cu" "F.Paste" "F.Mask")
      (net 2 "VCC") (pintype "passive") (tstamp db880261-65ec-4e3b-872b-4244480980fb))
    (model "${FAB}/fab.3dshapes/R_1206.step"
      (offset (xyz 0 0 0))
      (scale (xyz 1 1 1))
      (rotate (xyz 0 0 0))
    )
  )

  (footprint "fab:PinSocket_1x02_P2.54mm_Vertical_SMD" (layer "F.Cu")
    (tstamp d8ee90d1-9634-49e2-898d-d89324bb77ab)
    (at 119.4572 81.4832)
    (descr "https://media.digikey.com/pdf/Data%20Sheets/Sullins%20PDFs/NPxCxx1KFXx-RC%2010487-D.pdf")
    (tags "vertical pin socket SMD 2.54mm")
    (property "Sheetfile" "optical_pcb.kicad_sch")
    (property "Sheetname" "")
    (property "ki_description" "2 Position Header, Top or Bottom Entry Connector 0.100\" (2.54mm) Surface Mount Tin")
    (property "ki_keywords" "single row female connector Sullins Connector Solutions NPTC021KFXC-RC")
    (path "/a06998c4-fc06-4c55-8770-4cab701cca47")
    (attr smd)
    (fp_text reference "J3" (at 0 -3.429 180) (layer "F.SilkS")
        (effects (font (size 1 1) (thickness 0.15)))
      (tstamp 5d2e2cc3-0a61-4e35-b806-a31049ce9d47)
    )
    (fp_text value "Conn_PinSocket_1x02_P2.54mm_Vertical_SMD" (at 0 3.81) (layer "F.Fab")
        (effects (font (size 1 1) (thickness 0.15)))
      (tstamp 39d66387-25a6-4699-b89e-68b95b284157)
    )
    (fp_text user "${REFERENCE}" (at 0.126 0.0508 90) (layer "F.Fab")
        (effects (font (size 1 1) (thickness 0.15)))
      (tstamp 04ce6af8-385a-44d4-8c2c-4f8869ce58b2)
    )
    (fp_line (start -1.27 2.667) (end 1.27 2.667)
      (stroke (width 0.12) (type solid)) (layer "F.SilkS") (tstamp 8de4938b-0844-4102-b035-45285792a04b))
    (fp_line (start 1.397 -2.667) (end 0 -2.667)
      (stroke (width 0.12) (type solid)) (layer "F.SilkS") (tstamp ed7caba0-0482-42c5-830e-c85f24840831))
    (fp_line (start 1.397 -2.032) (end 1.397 -2.667)
      (stroke (width 0.12) (type solid)) (layer "F.SilkS") (tstamp c9ee895a-cdf2-41cb-8d77-4d28aebe2ebd))
    (fp_line (start -2.794 -2.667) (end -2.794 2.667)
      (stroke (width 0.05) (type solid)) (layer "F.CrtYd") (tstamp 79a25a2e-673e-436b-b5d4-4cdc174cf215))
    (fp_line (start -2.794 2.667) (end 2.794 2.667)
      (stroke (width 0.05) (type solid)) (layer "F.CrtYd") (tstamp 264d23b4-29d2-497a-b59e-360a04f9ecc4))
    (fp_line (start 2.794 -2.667) (end -2.794 -2.667)
      (stroke (width 0.05) (type solid)) (layer "F.CrtYd") (tstamp 6ce88704-94f7-4e56-b04c-720054d6905c))
    (fp_line (start 2.794 2.667) (end 2.794 -2.667)
      (stroke (width 0.05) (type solid)) (layer "F.CrtYd") (tstamp ba1ff73e-0f9a-4ba8-b702-7341525499d9))
    (fp_line (start -1.27 -2.54) (end 1.27 -2.54)
      (stroke (width 0.1) (type solid)) (layer "F.Fab") (tstamp 3bf187e2-ba7e-44b8-a58b-56fa35ddcd25))
    (fp_line (start -1.27 2.54) (end -1.27 -2.54)
      (stroke (width 0.1) (type solid)) (layer "F.Fab") (tstamp 0da1e429-8b9a-4b55-9df9-12caf85b0bd1))
    (fp_line (start -1.27 2.54) (end 1.27 2.54)
      (stroke (width 0.1) (type solid)) (layer "F.Fab") (tstamp 434a1b6e-5aef-4067-a2bd-f51b8dd6fefa))
    (fp_line (start 1.27 -2.54) (end 1.27 2.54)
      (stroke (width 0.1) (type solid)) (layer "F.Fab") (tstamp 0414062f-1e41-4dac-8f21-220d300cfade))
    (pad "1" smd rect (at 1.65 -1.27) (size 2 1) (layers "F.Cu" "F.Paste" "F.Mask")
      (net 1 "GND") (pinfunction "Pin_1") (pintype "passive") (tstamp 7e405c7c-13b5-4db3-a127-f445536ac5a0))
    (pad "2" smd rect (at -1.65 1.27) (size 2 1) (layers "F.Cu" "F.Paste" "F.Mask")
      (net 3 "Net-(J1-Pin_3)") (pinfunction "Pin_2") (pintype "passive") (tstamp 9f6f0d22-8f68-45e8-9c39-07746566edf8))
    (model "${FAB}/fab.3dshapes/Header_SMD_01x02_P2.54mm_Horizontal_Male.step"
      (offset (xyz 0 0 0))
      (scale (xyz 1 1 1))
      (rotate (xyz 0 0 0))
    )
  )

  (footprint "fab:R_1206" (layer "F.Cu")
    (tstamp e4b723ed-4a49-4f53-af63-044ef9354735)
    (at 111.538 76.6064)
    (descr "Resistor SMD 1206, hand soldering")
    (tags "resistor 1206")
    (property "Sheetfile" "optical_pcb.kicad_sch")
    (property "Sheetname" "")
    (property "ki_description" "Resistor")
    (property "ki_keywords" "R res resistor RC1206FR-074M99L RC1206FR-07499KL RC1206FR-0749K9L RC1206FR-0749R9L RC1206FR-074R99L ERJ-8BWJR100V RC1206FR-070RL RC1206FR-071RL RC1206FR-0710RL RC1206FR-07100RL RC1206FR-07499RL RC1206FR-071KL RC1206FR-074K99L RC1206FR-0710KL RC1206FR-07100KL RC1206FR-071ML RC1206FR-0710ML PT1206FR-070R1L")
    (path "/70e69c30-c9e5-45e3-8edc-6a81d052d7bf")
    (attr smd)
    (fp_text reference "R1" (at 0 -1.85) (layer "F.SilkS")
        (effects (font (size 1 1) (thickness 0.15)))
      (tstamp a43236a4-93c5-4d01-abfb-ec4b2e11a7a0)
    )
    (fp_text value "R_1206" (at 0 1.9) (layer "F.Fab")
        (effects (font (size 1 1) (thickness 0.15)))
      (tstamp f69a1ae5-cdd6-48d4-8bcd-19b3236c05fe)
    )
    (fp_text user "${REFERENCE}" (at 0 0) (layer "F.Fab")
        (effects (font (size 0.7 0.7) (thickness 0.105)))
      (tstamp fedd9a40-2c7b-41e8-8303-3c4455309c1e)
    )
    (fp_line (start -1 -1.07) (end 1 -1.07)
      (stroke (width 0.12) (type solid)) (layer "F.SilkS") (tstamp 3315f0f5-2ff7-49f9-8414-b5c104162a48))
    (fp_line (start 1 1.07) (end -1 1.07)
      (stroke (width 0.12) (type solid)) (layer "F.SilkS") (tstamp 84ea8407-84bc-44db-8828-bbdd8de3f871))
    (fp_line (start -3.25 -1.11) (end -3.25 1.1)
      (stroke (width 0.05) (type solid)) (layer "F.CrtYd") (tstamp 35b17567-a61d-4796-ac93-b243e525449d))
    (fp_line (start -3.25 -1.11) (end 3.25 -1.11)
      (stroke (width 0.05) (type solid)) (layer "F.CrtYd") (tstamp eb3d591f-2852-4274-99bd-8aebc0894b79))
    (fp_line (start 3.25 1.1) (end -3.25 1.1)
      (stroke (width 0.05) (type solid)) (layer "F.CrtYd") (tstamp c608e149-ccca-43d0-b0f7-dfb09c6df142))
    (fp_line (start 3.25 1.1) (end 3.25 -1.11)
      (stroke (width 0.05) (type solid)) (layer "F.CrtYd") (tstamp a5df0e32-42a3-445e-b328-8db6e7acc2b7))
    (fp_line (start -1.6 -0.8) (end 1.6 -0.8)
      (stroke (width 0.1) (type solid)) (layer "F.Fab") (tstamp 40beb4b3-a779-4bc0-a0ea-27954f252606))
    (fp_line (start -1.6 0.8) (end -1.6 -0.8)
      (stroke (width 0.1) (type solid)) (layer "F.Fab") (tstamp c775ae05-00e9-4ed7-9b41-ec2a82f422a0))
    (fp_line (start 1.6 -0.8) (end 1.6 0.8)
      (stroke (width 0.1) (type solid)) (layer "F.Fab") (tstamp 3a515076-113a-461b-b08a-ae038333f60a))
    (fp_line (start 1.6 0.8) (end -1.6 0.8)
      (stroke (width 0.1) (type solid)) (layer "F.Fab") (tstamp 7b6cdb80-78bc-4847-a2a2-ead606d041a2))
    (pad "1" smd rect (at -2 0) (size 2 1.7) (layers "F.Cu" "F.Paste" "F.Mask")
      (net 2 "VCC") (pintype "passive") (tstamp 1611b0c5-f129-49db-8049-5d881ac85891))
    (pad "2" smd rect (at 2 0) (size 2 1.7) (layers "F.Cu" "F.Paste" "F.Mask")
      (net 4 "Net-(J2-Pin_1)") (pintype "passive") (tstamp 00f3b6c5-7785-4cfe-96c5-cd81afa6bfc8))
    (model "${FAB}/fab.3dshapes/R_1206.step"
      (offset (xyz 0 0 0))
      (scale (xyz 1 1 1))
      (rotate (xyz 0 0 0))
    )
  )

  (gr_line (start 97.1296 83.0552) (end 97.1296 74.5772)
    (stroke (width 0.1) (type default)) (layer "Edge.Cuts") (tstamp 3ef45e82-e896-4a91-bead-70b898074cd7))
  (gr_arc (start 123.7488 83.0552) (mid 122.87012 85.17652) (end 120.7488 86.0552)
    (stroke (width 0.1) (type default)) (layer "Edge.Cuts") (tstamp 49d5e783-c0a9-419b-b43c-25027f70e1da))
  (gr_line (start 123.7488 74.5772) (end 123.7488 83.0552)
    (stroke (width 0.1) (type default)) (layer "Edge.Cuts") (tstamp 8011a1e6-c515-4c09-af80-fa6ae26cd677))
  (gr_arc (start 97.1296 74.5772) (mid 98.00828 72.45588) (end 100.1296 71.5772)
    (stroke (width 0.1) (type default)) (layer "Edge.Cuts") (tstamp 8b420ca4-a3af-43b9-9f50-bc945f5c11ab))
  (gr_arc (start 120.7488 71.5772) (mid 122.87012 72.45588) (end 123.7488 74.5772)
    (stroke (width 0.1) (type default)) (layer "Edge.Cuts") (tstamp 9acbc609-72d3-4287-b819-24f088ced1a2))
  (gr_arc (start 100.1296 86.0552) (mid 98.00828 85.17652) (end 97.1296 83.0552)
    (stroke (width 0.1) (type default)) (layer "Edge.Cuts") (tstamp ac076cd8-2e43-484c-95d7-2b57ddee70fd))
  (gr_line (start 120.7488 86.0552) (end 100.1296 86.0552)
    (stroke (width 0.1) (type default)) (layer "Edge.Cuts") (tstamp d11502f3-07b8-4cc5-a5a7-8193ce4da4ab))
  (gr_line (start 100.1296 71.5772) (end 120.7488 71.5772)
    (stroke (width 0.1) (type default)) (layer "Edge.Cuts") (tstamp ffd568c0-635d-429d-9653-a69dcd9bc21d))

  (segment (start 105.3084 79.756) (end 106.8324 79.756) (width 0.4) (layer "F.Cu") (net 2) (tstamp 01a96269-5732-4647-a3d5-b7e87fafd341))
  (segment (start 111.5568 74.7776) (end 109.728 76.6064) (width 0.4) (layer "F.Cu") (net 2) (tstamp 0b89c78c-2344-4be5-9003-285f1c022899))
  (segment (start 115.2652 74.7776) (end 111.5568 74.7776) (width 0.4) (layer "F.Cu") (net 2) (tstamp 155d17bd-86e4-4f73-9cfe-739624bde789))
  (segment (start 117.2972 76.5556) (end 117.0432 76.5556) (width 0.4) (layer "F.Cu") (net 2) (tstamp 30de1beb-93c9-4bb4-b144-2db4ddf91a61))
  (segment (start 109.728 76.6064) (end 109.538 76.6064) (width 0.4) (layer "F.Cu") (net 2) (tstamp 342a5420-cf26-4be1-8b24-710cf3138a6e))
  (segment (start 109.538 77.0504) (end 109.538 76.6064) (width 0.4) (layer "F.Cu") (net 2) (tstamp 3e10d3da-5e13-4128-a06f-968ad2fd92d9))
  (segment (start 106.8324 79.756) (end 109.538 77.0504) (width 0.4) (layer "F.Cu") (net 2) (tstamp 91b98dc1-853b-411f-96ec-0389356df0c4))
  (segment (start 117.0432 76.5556) (end 115.2652 74.7776) (width 0.4) (layer "F.Cu") (net 2) (tstamp c0d608ec-f17e-40d6-959c-86155dacf736))
  (segment (start 117.8072 80.516) (end 117.8072 82.7532) (width 0.4) (layer "F.Cu") (net 3) (tstamp 010cbfb2-51a2-4342-975d-2881355d1062))
  (segment (start 105.3084 77.216) (end 105.5116 77.216) (width 0.4) (layer "F.Cu") (net 3) (tstamp 2037ba5a-21fb-495f-b0d7-c83843db5470))
  (segment (start 120.4844 77.8388) (end 117.8072 80.516) (width 0.4) (layer "F.Cu") (net 3) (tstamp 32c82468-7585-45ad-808a-5f7714274e66))
  (segment (start 105.5116 77.216) (end 108.7628 73.9648) (width 0.4) (layer "F.Cu") (net 3) (tstamp 3c12d10d-c7f1-47f6-909d-cccef27e982a))
  (segment (start 108.7628 73.9648) (end 118.7064 73.9648) (width 0.4) (layer "F.Cu") (net 3) (tstamp 3d054b65-ae3e-4fc9-93bd-60a3bca2fa21))
  (segment (start 118.7064 73.9648) (end 121.2972 76.5556) (width 0.4) (layer "F.Cu") (net 3) (tstamp 5d1bf030-7820-4b8a-af80-5c2d80d38d26))
  (segment (start 121.2972 76.5556) (end 121.2972 77.8388) (width 0.4) (layer "F.Cu") (net 3) (tstamp 9d410be9-cf26-4f8a-a07b-b031683e1195))
  (segment (start 121.2972 77.8388) (end 120.4844 77.8388) (width 0.4) (layer "F.Cu") (net 3) (tstamp c082dc27-1380-4bfd-9a11-0e61d2f74ed8))
  (segment (start 113.2332 76.9112) (end 113.538 76.6064) (width 0.4) (layer "F.Cu") (net 4) (tstamp 62120158-778b-4111-aef6-403e27811346))
  (segment (start 113.2332 80.2132) (end 113.2332 76.9112) (width 0.4) (layer "F.Cu") (net 4) (tstamp 941bd8f9-e8ce-47b4-9250-b0b4be844938))

  (zone (net 1) (net_name "GND") (layer "F.Cu") (tstamp 1b8d4a9a-ef44-4df3-b6d1-13114ab49705) (hatch edge 0.5)
    (connect_pads (clearance 0.5))
    (min_thickness 0.25) (filled_areas_thickness no)
    (fill yes (thermal_gap 0.5) (thermal_bridge_width 0.5))
    (polygon
      (pts
        (xy 91.8464 55.8292)
        (xy 169.164 55.9816)
        (xy 173.228 126.5936)
        (xy 76.4032 118.5164)
      )
    )
    (filled_polygon
      (layer "F.Cu")
      (pts
        (xy 120.752043 71.577869)
        (xy 120.882179 71.58469)
        (xy 121.062708 71.594828)
        (xy 121.075109 71.596155)
        (xy 121.22379 71.619704)
        (xy 121.225045 71.619909)
        (xy 121.384124 71.646938)
        (xy 121.395406 71.649402)
        (xy 121.544435 71.689334)
        (xy 121.546561 71.689925)
        (xy 121.697974 71.733547)
        (xy 121.70806 71.736929)
        (xy 121.85351 71.792762)
        (xy 121.856399 71.793914)
        (xy 122.000568 71.85363)
        (xy 122.009394 71.8577)
        (xy 122.148864 71.928765)
        (xy 122.152548 71.930721)
        (xy 122.242648 71.980516)
        (xy 122.288348 72.005774)
        (xy 122.295861 72.010281)
        (xy 122.427554 72.095804)
        (xy 122.431747 72.098652)
        (xy 122.557947 72.188196)
        (xy 122.564228 72.192959)
        (xy 122.686367 72.291865)
        (xy 122.690958 72.295771)
        (xy 122.806224 72.398779)
        (xy 122.811278 72.403558)
        (xy 122.92244 72.51472)
        (xy 122.927219 72.519774)
        (xy 123.030227 72.63504)
        (xy 123.034133 72.639631)
        (xy 123.133039 72.76177)
        (xy 123.137802 72.768051)
        (xy 123.227346 72.894251)
        (xy 123.230209 72.898466)
        (xy 123.315707 73.030121)
        (xy 123.32023 73.03766)
        (xy 123.395277 73.17345)
        (xy 123.397233 73.177134)
        (xy 123.468298 73.316604)
        (xy 123.472375 73.325447)
        (xy 123.532059 73.469537)
        (xy 123.533262 73.472553)
        (xy 123.589065 73.617927)
        (xy 123.592455 73.628036)
        (xy 123.636058 73.779385)
        (xy 123.636679 73.781619)
        (xy 123.676591 73.93057)
        (xy 123.679064 73.941894)
        (xy 123.706082 74.100915)
        (xy 123.706307 74.102287)
        (xy 123.72984 74.250866)
        (xy 123.731172 74.263311)
        (xy 123.741298 74.443621)
        (xy 123.741323 74.444084)
        (xy 123.74813 74.573957)
        (xy 123.7483 74.580447)
        (xy 123.7483 83.051953)
        (xy 123.74813 83.058443)
        (xy 123.741323 83.188314)
        (xy 123.741298 83.188777)
        (xy 123.731172 83.369087)
        (xy 123.72984 83.381532)
        (xy 123.706307 83.530111)
        (xy 123.706082 83.531483)
        (xy 123.679064 83.690504)
        (xy 123.676591 83.701828)
        (xy 123.636679 83.850779)
        (xy 123.636058 83.853013)
        (xy 123.592455 84.004362)
        (xy 123.589065 84.014471)
        (xy 123.533262 84.159845)
        (xy 123.532059 84.162861)
        (xy 123.472375 84.306951)
        (xy 123.468298 84.315794)
        (xy 123.397233 84.455264)
        (xy 123.395277 84.458948)
        (xy 123.32023 84.594738)
        (xy 123.315697 84.602294)
        (xy 123.230212 84.733928)
        (xy 123.227346 84.738147)
        (xy 123.137802 84.864347)
        (xy 123.133039 84.870628)
        (xy 123.034133 84.992767)
        (xy 123.030227 84.997358)
        (xy 122.927219 85.112624)
        (xy 122.92244 85.117678)
        (xy 122.811278 85.22884)
        (xy 122.806224 85.233619)
        (xy 122.690958 85.336627)
        (xy 122.686367 85.340533)
        (xy 122.564228 85.439439)
        (xy 122.557947 85.444202)
        (xy 122.431747 85.533746)
        (xy 122.427528 85.536612)
        (xy 122.295894 85.622097)
        (xy 122.288338 85.62663)
        (xy 122.152548 85.701677)
        (xy 122.148864 85.703633)
        (xy 122.009394 85.774698)
        (xy 122.000551 85.778775)
        (xy 121.856461 85.838459)
        (xy 121.853445 85.839662)
        (xy 121.708071 85.895465)
        (xy 121.697962 85.898855)
        (xy 121.546613 85.942458)
        (xy 121.544379 85.943079)
        (xy 121.395428 85.982991)
        (xy 121.384104 85.985464)
        (xy 121.225083 86.012482)
        (xy 121.223711 86.012707)
        (xy 121.075132 86.03624)
        (xy 121.062687 86.037572)
        (xy 120.882377 86.047698)
        (xy 120.881914 86.047723)
        (xy 120.752043 86.05453)
        (xy 120.745553 86.0547)
        (xy 100.132847 86.0547)
        (xy 100.126357 86.05453)
        (xy 99.996484 86.047723)
        (xy 99.996021 86.047698)
        (xy 99.815711 86.037572)
        (xy 99.803266 86.03624)
        (xy 99.654687 86.012707)
        (xy 99.653315 86.012482)
        (xy 99.494294 85.985464)
        (xy 99.48297 85.982991)
        (xy 99.334019 85.943079)
        (xy 99.331785 85.942458)
        (xy 99.180436 85.898855)
        (xy 99.170327 85.895465)
        (xy 99.024953 85.839662)
        (xy 99.021937 85.838459)
        (xy 98.877847 85.778775)
        (xy 98.869004 85.774698)
        (xy 98.729534 85.703633)
        (xy 98.72585 85.701677)
        (xy 98.59006 85.62663)
        (xy 98.582521 85.622107)
        (xy 98.450866 85.536609)
        (xy 98.446651 85.533746)
        (xy 98.320451 85.444202)
        (xy 98.31417 85.439439)
        (xy 98.192031 85.340533)
        (xy 98.18744 85.336627)
        (xy 98.072174 85.233619)
        (xy 98.06712 85.22884)
        (xy 97.955958 85.117678)
        (xy 97.951179 85.112624)
        (xy 97.848171 84.997358)
        (xy 97.844265 84.992767)
        (xy 97.745359 84.870628)
        (xy 97.740596 84.864347)
        (xy 97.651052 84.738147)
        (xy 97.648204 84.733954)
        (xy 97.562681 84.602261)
        (xy 97.558168 84.594738)
        (xy 97.483121 84.458948)
        (xy 97.481165 84.455264)
        (xy 97.4101 84.315794)
        (xy 97.40603 84.306968)
        (xy 97.346314 84.162799)
        (xy 97.345162 84.15991)
        (xy 97.289329 84.01446)
        (xy 97.285947 84.004374)
        (xy 97.242325 83.852961)
        (xy 97.241734 83.850835)
        (xy 97.201802 83.701806)
        (xy 97.199338 83.690524)
        (xy 97.172309 83.531445)
        (xy 97.172091 83.530111)
        (xy 97.148555 83.381509)
        (xy 97.147228 83.369108)
        (xy 97.137085 83.188485)
        (xy 97.137076 83.188314)
        (xy 97.130269 83.058443)
        (xy 97.1301 83.051955)
        (xy 97.1301 82.546)
        (xy 103.5584 82.546)
        (xy 103.5584 83.193824)
        (xy 103.564802 83.253375)
        (xy 103.615047 83.388089)
        (xy 103.701211 83.503188)
        (xy 103.81631 83.589352)
        (xy 103.951024 83.639597)
        (xy 104.010576 83.646)
        (xy 105.0584 83.646)
        (xy 105.0584 82.546)
        (xy 105.5584 82.546)
        (xy 105.5584 83.646)
        (xy 106.606224 83.646)
        (xy 106.665775 83.639597)
        (xy 106.800489 83.589352)
        (xy 106.915588 83.503188)
        (xy 107.001752 83.388089)
        (xy 107.051997 83.253375)
        (xy 107.0584 83.193824)
        (xy 107.0584 83.0032)
        (xy 108.4332 83.0032)
        (xy 108.4332 83.301024)
        (xy 108.439602 83.360575)
        (xy 108.489847 83.495289)
        (xy 108.576011 83.610388)
        (xy 108.69111 83.696552)
        (xy 108.825824 83.746797)
        (xy 108.885376 83.7532)
        (xy 109.6832 83.7532)
        (xy 109.6832 83.0032)
        (xy 110.1832 83.0032)
        (xy 110.1832 83.7532)
        (xy 110.981024 83.7532)
        (xy 111.040575 83.746797)
        (xy 111.175289 83.696552)
        (xy 111.290388 83.610388)
        (xy 111.376552 83.495289)
        (xy 111.426797 83.360575)
        (xy 111.4332 83.301024)
        (xy 111.4332 83.0032)
        (xy 110.1832 83.0032)
        (xy 109.6832 83.0032)
        (xy 108.4332 83.0032)
        (xy 107.0584 83.0032)
        (xy 107.0584 82.546)
        (xy 105.5584 82.546)
        (xy 105.0584 82.546)
        (xy 103.5584 82.546)
        (xy 97.1301 82.546)
        (xy 97.1301 82.5032)
        (xy 108.4332 82.5032)
        (xy 109.6832 82.5032)
        (xy 109.6832 81.7532)
        (xy 110.1832 81.7532)
        (xy 110.1832 82.5032)
        (xy 111.4332 82.5032)
        (xy 111.4332 82.205376)
        (xy 111.426797 82.145824)
        (xy 111.376552 82.01111)
        (xy 111.290388 81.896011)
        (xy 111.175289 81.809847)
        (xy 111.040575 81.759602)
        (xy 110.981024 81.7532)
        (xy 110.1832 81.7532)
        (xy 109.6832 81.7532)
        (xy 108.885376 81.7532)
        (xy 108.825824 81.759602)
        (xy 108.69111 81.809847)
        (xy 108.576011 81.896011)
        (xy 108.489847 82.01111)
        (xy 108.439602 82.145824)
        (xy 108.4332 82.205376)
        (xy 108.4332 82.5032)
        (xy 97.1301 82.5032)
        (xy 97.1301 80.653869)
        (xy 103.5579 80.653869)
        (xy 103.564309 80.713484)
        (xy 103.604292 80.820683)
        (xy 103.614604 80.848331)
        (xy 103.692291 80.952107)
        (xy 103.714189 81.000057)
        (xy 103.714189 81.052774)
        (xy 103.69229 81.100726)
        (xy 103.615048 81.203908)
        (xy 103.564802 81.338624)
        (xy 103.5584 81.398176)
        (xy 103.5584 82.046)
        (xy 107.0584 82.046)
        (xy 107.0584 81.398176)
        (xy 107.051997 81.338624)
        (xy 107.001752 81.203911)
        (xy 106.924509 81.100727)
        (xy 106.90261 81.052774)
        (xy 106.90261 81.000057)
        (xy 106.924507 80.952109)
        (xy 107.002196 80.848331)
        (xy 107.052491 80.713483)
        (xy 107.0589 80.653873)
        (xy 107.058899 80.504875)
        (xy 107.068822 80.456272)
        (xy 107.097002 80.415446)
        (xy 107.138927 80.388934)
        (xy 107.16033 80.380818)
        (xy 107.16867 80.37506)
        (xy 107.188219 80.364035)
        (xy 107.197457 80.359878)
        (xy 107.244813 80.322775)
        (xy 107.25082 80.318355)
        (xy 107.300329 80.284183)
        (xy 107.340223 80.23915)
        (xy 107.345324 80.233731)
        (xy 109.585838 77.993218)
        (xy 109.626066 77.966338)
        (xy 109.673519 77.956899)
        (xy 110.58587 77.956899)
        (xy 110.585872 77.956899)
        (xy 110.645483 77.950491)
        (xy 110.780331 77.900196)
        (xy 110.895546 77.813946)
        (xy 110.981796 77.698731)
        (xy 111.032091 77.563883)
        (xy 111.0385 77.504273)
        (xy 111.038499 76.337918)
        (xy 111.047938 76.290466)
        (xy 111.074818 76.250238)
        (xy 111.810638 75.514419)
        (xy 111.850866 75.487539)
        (xy 111.898319 75.4781)
        (xy 111.929026 75.4781)
        (xy 111.986501 75.492224)
        (xy 112.030882 75.53138)
        (xy 112.052059 75.586647)
        (xy 112.045207 75.645434)
        (xy 112.043909 75.648917)
        (xy 112.040846 75.677411)
        (xy 112.0375 75.70853)
        (xy 112.0375 77.504269)
        (xy 112.043097 77.556332)
        (xy 112.043909 77.563883)
        (xy 112.094204 77.698731)
        (xy 112.180454 77.813946)
        (xy 112.295669 77.900196)
        (xy 112.413448 77.944125)
        (xy 112.44511 77.955934)
        (xy 112.444415 77.957796)
        (xy 112.478199 77.970167)
        (xy 112.518231 78.01473)
        (xy 112.5327 78.07286)
        (xy 112.5327 79.088701)
        (xy 112.516087 79.150701)
        (xy 112.4707 79.196088)
        (xy 112.4087 79.212701)
        (xy 112.185328 79.212701)
        (xy 112.155522 79.215904)
        (xy 112.125715 79.219109)
        (xy 111.990869 79.269404)
        (xy 111.875654 79.355654)
        (xy 111.789404 79.470868)
        (xy 111.739109 79.605716)
        (xy 111.7327 79.66533)
        (xy 111.7327 80.761069)
        (xy 111.739097 80.820575)
        (xy 111.739109 80.820683)
        (xy 111.789404 80.955531)
        (xy 111.875654 81.070746)
        (xy 111.990869 81.156996)
        (xy 112.125717 81.207291)
        (xy 112.185327 81.2137)
        (xy 114.281072 81.213699)
        (xy 114.340683 81.207291)
        (xy 114.475531 81.156996)
        (xy 114.590746 81.070746)
        (xy 114.676996 80.955531)
        (xy 114.727291 80.820683)
        (xy 114.7337 80.761073)
        (xy 114.733699 79.665328)
        (xy 114.727291 79.605717)
        (xy 114.676996 79.470869)
        (xy 114.590746 79.355654)
        (xy 114.475531 79.269404)
        (xy 114.340683 79.219109)
        (xy 114.281073 79.2127)
        (xy 114.281069 79.2127)
        (xy 114.0577 79.2127)
        (xy 113.9957 79.196087)
        (xy 113.950313 79.1507)
        (xy 113.9337 79.0887)
        (xy 113.9337 78.080899)
        (xy 113.950313 78.018899)
        (xy 113.9957 77.973512)
        (xy 114.0577 77.956899)
        (xy 114.58587 77.956899)
        (xy 114.585872 77.956899)
        (xy 114.645483 77.950491)
        (xy 114.780331 77.900196)
        (xy 114.895546 77.813946)
        (xy 114.981796 77.698731)
        (xy 115.032091 77.563883)
        (xy 115.0385 77.504273)
        (xy 115.038499 75.840917)
        (xy 115.052014 75.784623)
        (xy 115.089614 75.7406)
        (xy 115.143101 75.718445)
        (xy 115.200817 75.722987)
        (xy 115.25018 75.753237)
        (xy 115.760381 76.263438)
        (xy 115.787261 76.303666)
        (xy 115.7967 76.351119)
        (xy 115.7967 77.453469)
        (xy 115.803109 77.513084)
        (xy 115.824262 77.569796)
        (xy 115.853404 77.647931)
        (xy 115.939654 77.763146)
        (xy 116.054869 77.849396)
        (xy 116.189717 77.899691)
        (xy 116.249327 77.9061)
        (xy 118.345072 77.906099)
        (xy 118.404683 77.899691)
        (xy 118.539531 77.849396)
        (xy 118.654746 77.763146)
        (xy 118.740996 77.647931)
        (xy 118.791291 77.513083)
        (xy 118.7977 77.453473)
        (xy 118.797699 75.657728)
        (xy 118.791291 75.598117)
        (xy 118.740996 75.463269)
        (xy 118.654746 75.348054)
        (xy 118.539531 75.261804)
        (xy 118.404683 75.211509)
        (xy 118.345073 75.2051)
        (xy 118.345069 75.2051)
        (xy 116.734719 75.2051)
        (xy 116.687266 75.195661)
        (xy 116.647038 75.168781)
        (xy 116.355238 74.876981)
        (xy 116.324988 74.827618)
        (xy 116.320446 74.769902)
        (xy 116.342601 74.716415)
        (xy 116.386624 74.678815)
        (xy 116.442919 74.6653)
        (xy 118.364881 74.6653)
        (xy 118.412334 74.674739)
        (xy 118.452562 74.701619)
        (xy 119.760381 76.009437)
        (xy 119.787261 76.049665)
        (xy 119.7967 76.097118)
        (xy 119.7967 77.453474)
        (xy 119.798355 77.468865)
        (xy 119.792001 77.52337)
        (xy 119.762746 77.569796)
        (xy 117.32949 80.003051)
        (xy 117.324038 80.008183)
        (xy 117.279016 80.04807)
        (xy 117.244849 80.097568)
        (xy 117.240413 80.103597)
        (xy 117.203321 80.150942)
        (xy 117.199161 80.160186)
        (xy 117.188141 80.179725)
        (xy 117.182382 80.188069)
        (xy 117.161053 80.244305)
        (xy 117.158189 80.251219)
        (xy 117.133503 80.30607)
        (xy 117.131675 80.316047)
        (xy 117.125654 80.337648)
        (xy 117.122059 80.347128)
        (xy 117.114809 80.406827)
        (xy 117.113683 80.414226)
        (xy 117.102841 80.473391)
        (xy 117.106474 80.533434)
        (xy 117.1067 80.540921)
        (xy 117.1067 81.628701)
        (xy 117.090087 81.690701)
        (xy 117.0447 81.736088)
        (xy 116.9827 81.752701)
        (xy 116.759328 81.752701)
        (xy 116.729522 81.755904)
        (xy 116.699715 81.759109)
        (xy 116.564869 81.809404)
        (xy 116.449654 81.895654)
        (xy 116.363404 82.010868)
        (xy 116.313109 82.145716)
        (xy 116.3067 82.20533)
        (xy 116.3067 83.301069)
        (xy 116.313097 83.360575)
        (xy 116.313109 83.360683)
        (xy 116.363404 83.495531)
        (xy 116.449654 83.610746)
        (xy 116.564869 83.696996)
        (xy 116.699717 83.747291)
        (xy 116.759327 83.7537)
        (xy 118.855072 83.753699)
        (xy 118.914683 83.747291)
        (xy 119.049531 83.696996)
        (xy 119.164746 83.610746)
        (xy 119.250996 83.495531)
        (xy 119.301291 83.360683)
        (xy 119.3077 83.301073)
        (xy 119.307699 82.205328)
        (xy 119.301291 82.145717)
        (xy 119.250996 82.010869)
        (xy 119.164746 81.895654)
        (xy 119.049531 81.809404)
        (xy 118.914683 81.759109)
        (xy 118.855073 81.7527)
        (xy 118.855069 81.7527)
        (xy 118.6317 81.7527)
        (xy 118.5697 81.736087)
        (xy 118.524313 81.6907)
        (xy 118.5077 81.6287)
        (xy 118.5077 80.857519)
        (xy 118.517139 80.810066)
        (xy 118.544019 80.769838)
        (xy 118.850657 80.4632)
        (xy 119.6072 80.4632)
        (xy 119.6072 80.761024)
        (xy 119.613602 80.820575)
        (xy 119.663847 80.955289)
        (xy 119.750011 81.070388)
        (xy 119.86511 81.156552)
        (xy 119.999824 81.206797)
        (xy 120.059376 81.2132)
        (xy 120.8572 81.2132)
        (xy 120.8572 80.4632)
        (xy 121.3572 80.4632)
        (xy 121.3572 81.2132)
        (xy 122.155024 81.2132)
        (xy 122.214575 81.206797)
        (xy 122.349289 81.156552)
        (xy 122.464388 81.070388)
        (xy 122.550552 80.955289)
        (xy 122.600797 80.820575)
        (xy 122.6072 80.761024)
        (xy 122.6072 80.4632)
        (xy 121.3572 80.4632)
        (xy 120.8572 80.4632)
        (xy 119.6072 80.4632)
        (xy 118.850657 80.4632)
        (xy 119.395519 79.918338)
        (xy 119.444882 79.888088)
        (xy 119.502598 79.883546)
        (xy 119.556085 79.905701)
        (xy 119.593456 79.949456)
        (xy 119.6072 79.9632)
        (xy 120.8572 79.9632)
        (xy 120.8572 79.2132)
        (xy 121.3572 79.2132)
        (xy 121.3572 79.9632)
        (xy 122.6072 79.9632)
        (xy 122.6072 79.665376)
        (xy 122.600797 79.605824)
        (xy 122.550552 79.47111)
        (xy 122.464388 79.356011)
        (xy 122.349289 79.269847)
        (xy 122.214575 79.219602)
        (xy 122.155024 79.2132)
        (xy 121.3572 79.2132)
        (xy 120.8572 79.2132)
        (xy 120.400018 79.2132)
        (xy 120.343723 79.199685)
        (xy 120.2997 79.162085)
        (xy 120.277545 79.108598)
        (xy 120.282087 79.050882)
        (xy 120.312337 79.001519)
        (xy 120.738237 78.575619)
        (xy 120.778465 78.548739)
        (xy 120.825918 78.5393)
        (xy 121.382253 78.5393)
        (xy 121.382256 78.5393)
        (xy 121.416438 78.530874)
        (xy 121.431136 78.528181)
        (xy 121.466072 78.52394)
        (xy 121.498972 78.511462)
        (xy 121.51325 78.507012)
        (xy 121.547425 78.49859)
        (xy 121.578582 78.482236)
        (xy 121.592223 78.476097)
        (xy 121.62513 78.463618)
        (xy 121.654095 78.443623)
        (xy 121.666897 78.435884)
        (xy 121.698052 78.419534)
        (xy 121.724385 78.396205)
        (xy 121.736162 78.386976)
        (xy 121.765129 78.366983)
        (xy 121.788464 78.340641)
        (xy 121.799041 78.330064)
        (xy 121.825383 78.306729)
        (xy 121.845376 78.277762)
        (xy 121.854605 78.265985)
        (xy 121.877932 78.239654)
        (xy 121.877931 78.239654)
        (xy 121.877934 78.239652)
        (xy 121.894284 78.208497)
        (xy 121.902023 78.195695)
        (xy 121.922018 78.16673)
        (xy 121.934497 78.133823)
        (xy 121.940636 78.120182)
        (xy 121.95699 78.089025)
        (xy 121.965412 78.05485)
        (xy 121.969864 78.040567)
        (xy 121.987679 77.993593)
        (xy 121.989365 77.994232)
        (xy 122.002474 77.959663)
        (xy 122.046899 77.920304)
        (xy 122.104527 77.906099)
        (xy 122.34507 77.906099)
        (xy 122.345072 77.906099)
        (xy 122.404683 77.899691)
        (xy 122.539531 77.849396)
        (xy 122.654746 77.763146)
        (xy 122.740996 77.647931)
        (xy 122.791291 77.513083)
        (xy 122.7977 77.453473)
        (xy 122.797699 75.657728)
        (xy 122.791291 75.598117)
        (xy 122.740996 75.463269)
        (xy 122.654746 75.348054)
        (xy 122.539531 75.261804)
        (xy 122.404683 75.211509)
        (xy 122.345073 75.2051)
        (xy 122.345069 75.2051)
        (xy 120.988719 75.2051)
        (xy 120.941266 75.195661)
        (xy 120.901038 75.168781)
        (xy 119.21934 73.487083)
        (xy 119.214222 73.481647)
        (xy 119.174329 73.436617)
        (xy 119.124829 73.402449)
        (xy 119.118805 73.398016)
        (xy 119.071454 73.36092)
        (xy 119.062213 73.356761)
        (xy 119.042673 73.345741)
        (xy 119.03433 73.339982)
        (xy 119.034327 73.339981)
        (xy 119.034326 73.33998)
        (xy 118.978101 73.318656)
        (xy 118.971183 73.315791)
        (xy 118.916329 73.291103)
        (xy 118.906352 73.289275)
        (xy 118.884739 73.28325)
        (xy 118.875273 73.27966)
        (xy 118.815572 73.27241)
        (xy 118.808171 73.271283)
        (xy 118.749007 73.260441)
        (xy 118.688966 73.264074)
        (xy 118.681479 73.2643)
        (xy 108.78771 73.2643)
        (xy 108.780223 73.264074)
        (xy 108.720191 73.260442)
        (xy 108.661042 73.271281)
        (xy 108.653643 73.272408)
        (xy 108.593922 73.27966)
        (xy 108.584441 73.283256)
        (xy 108.562836 73.289279)
        (xy 108.552867 73.291106)
        (xy 108.498028 73.315786)
        (xy 108.491113 73.31865)
        (xy 108.434867 73.339982)
        (xy 108.42652 73.345743)
        (xy 108.406992 73.356757)
        (xy 108.397748 73.360918)
        (xy 108.350397 73.398014)
        (xy 108.344368 73.402449)
        (xy 108.29487 73.436616)
        (xy 108.254983 73.481638)
        (xy 108.249851 73.48709)
        (xy 105.90776 75.829181)
        (xy 105.867532 75.856061)
        (xy 105.820079 75.8655)
        (xy 104.01053 75.8655)
        (xy 103.950915 75.871909)
        (xy 103.816069 75.922204)
        (xy 103.700854 76.008454)
        (xy 103.614604 76.123668)
        (xy 103.564309 76.258516)
        (xy 103.5579 76.31813)
        (xy 103.5579 78.113869)
        (xy 103.564309 78.173484)
        (xy 103.577371 78.208505)
        (xy 103.614604 78.308331)
        (xy 103.658511 78.366983)
        (xy 103.691977 78.411688)
        (xy 103.713876 78.459641)
        (xy 103.713876 78.512356)
        (xy 103.691978 78.560309)
        (xy 103.614604 78.663669)
        (xy 103.564309 78.798516)
        (xy 103.5579 78.85813)
        (xy 103.5579 80.653869)
        (xy 97.1301 80.653869)
        (xy 97.1301 74.580445)
        (xy 97.13027 74.573956)
        (xy 97.137101 74.443621)
        (xy 97.147228 74.263287)
        (xy 97.148554 74.250894)
        (xy 97.172113 74.102147)
        (xy 97.1723 74.101009)
        (xy 97.199339 73.941866)
        (xy 97.201799 73.930602)
        (xy 97.24175 73.781505)
        (xy 97.242309 73.779493)
        (xy 97.285951 73.628011)
        (xy 97.289324 73.617953)
        (xy 97.345183 73.472433)
        (xy 97.346292 73.469652)
        (xy 97.406039 73.325412)
        (xy 97.410088 73.316629)
        (xy 97.481169 73.177125)
        (xy 97.483121 73.17345)
        (xy 97.558188 73.037626)
        (xy 97.562665 73.030162)
        (xy 97.648233 72.898399)
        (xy 97.651034 72.894277)
        (xy 97.74061 72.768032)
        (xy 97.745333 72.761803)
        (xy 97.844302 72.639586)
        (xy 97.848132 72.635085)
        (xy 97.951213 72.519737)
        (xy 97.955923 72.514756)
        (xy 98.067156 72.403523)
        (xy 98.072137 72.398813)
        (xy 98.187485 72.295732)
        (xy 98.191986 72.291902)
        (xy 98.314203 72.192933)
        (xy 98.320432 72.18821)
        (xy 98.446677 72.098634)
        (xy 98.450799 72.095833)
        (xy 98.582562 72.010265)
        (xy 98.590026 72.005788)
        (xy 98.725855 71.930717)
        (xy 98.729534 71.928765)
        (xy 98.869029 71.857688)
        (xy 98.877812 71.853639)
        (xy 99.022052 71.793892)
        (xy 99.024833 71.792783)
        (xy 99.170353 71.736924)
        (xy 99.180411 71.733551)
        (xy 99.331893 71.689909)
        (xy 99.333905 71.68935)
        (xy 99.483002 71.649399)
        (xy 99.494266 71.646939)
        (xy 99.653409 71.6199)
        (xy 99.654547 71.619713)
        (xy 99.803294 71.596154)
        (xy 99.815687 71.594828)
        (xy 99.996154 71.584693)
        (xy 100.126356 71.577869)
        (xy 100.132845 71.5777)
        (xy 120.745555 71.5777)
      )
    )
  )
)
