EESchema Schematic File Version 4
EELAYER 30 0
EELAYER END
$Descr A4 11693 8268
encoding utf-8
Sheet 1 1
Title ""
Date ""
Rev ""
Comp ""
Comment1 ""
Comment2 ""
Comment3 ""
Comment4 ""
$EndDescr
$Comp
L fab:C C1
U 1 1 60417AF6
P 6500 3050
F 0 "C1" H 6615 3096 50  0000 L CNN
F 1 "C" H 6615 3005 50  0000 L CNN
F 2 "fab:C_1206" H 6538 2900 50  0001 C CNN
F 3 "" H 6500 3050 50  0001 C CNN
	1    6500 3050
	-1   0    0    1   
$EndComp
$Comp
L fab:Conn_01x06_Male J2
U 1 1 6041850C
P 9200 3100
F 0 "J2" H 9172 3074 50  0000 R CNN
F 1 "Conn_01x06_Male" H 9172 2983 50  0000 R CNN
F 2 "fab:Header_SMD_01x06_P2.54mm_Horizontal_Male" H 9200 3100 50  0001 C CNN
F 3 "~" H 9200 3100 50  0001 C CNN
	1    9200 3100
	-1   0    0    -1  
$EndComp
$Comp
L power:GND #PWR0101
U 1 1 60419DB4
P 7500 4500
F 0 "#PWR0101" H 7500 4250 50  0001 C CNN
F 1 "GND" H 7505 4327 50  0000 C CNN
F 2 "" H 7500 4500 50  0001 C CNN
F 3 "" H 7500 4500 50  0001 C CNN
	1    7500 4500
	1    0    0    -1  
$EndComp
$Comp
L fab:LED D1
U 1 1 6041EB5B
P 8300 4800
F 0 "D1" V 8247 4878 50  0000 L CNN
F 1 "LED" V 8338 4878 50  0000 L CNN
F 2 "fab:LED_1206" H 8300 4800 50  0001 C CNN
F 3 "https://optoelectronics.liteon.com/upload/download/DS-22-98-0002/LTST-C150CKT.pdf" H 8300 4800 50  0001 C CNN
	1    8300 4800
	1    0    0    -1  
$EndComp
$Comp
L fab:R R1
U 1 1 60421817
P 8600 4800
F 0 "R1" H 8670 4846 50  0000 L CNN
F 1 "R" H 8670 4755 50  0000 L CNN
F 2 "fab:R_1206" V 8530 4800 50  0001 C CNN
F 3 "~" H 8600 4800 50  0001 C CNN
	1    8600 4800
	0    -1   -1   0   
$EndComp
$Comp
L fab:Microcontroller_ATtiny412_SSFR U1
U 1 1 60415F1B
P 7500 3050
F 0 "U1" H 6970 3096 50  0000 R CNN
F 1 "Microcontroller_ATtiny412_SSFR" H 6970 3005 50  0000 R CNN
F 2 "fab:SOIC-8_3.9x4.9mm_P1.27mm" H 7500 3050 50  0001 C CIN
F 3 "http://ww1.microchip.com/downloads/en/DeviceDoc/40001911A.pdf" H 7500 3050 50  0001 C CNN
	1    7500 3050
	1    0    0    -1  
$EndComp
$Comp
L power:VCC #PWR0102
U 1 1 6041BBF5
P 7500 1700
F 0 "#PWR0102" H 7500 1550 50  0001 C CNN
F 1 "VCC" H 7515 1873 50  0000 C CNN
F 2 "" H 7500 1700 50  0001 C CNN
F 3 "" H 7500 1700 50  0001 C CNN
	1    7500 1700
	1    0    0    -1  
$EndComp
Wire Wire Line
	7500 3750 7500 3950
Wire Wire Line
	7500 2200 6500 2200
Wire Wire Line
	6500 2200 6500 2900
Connection ~ 7500 2200
Wire Wire Line
	7500 2200 7500 2300
Wire Wire Line
	6500 3200 6500 3950
Wire Wire Line
	6500 3950 7500 3950
Connection ~ 7500 3950
Wire Wire Line
	7500 3950 7500 4400
Wire Wire Line
	8450 3950 8050 3950
Wire Wire Line
	8550 2750 8100 2750
Wire Wire Line
	7500 2200 8750 2200
Wire Wire Line
	8750 2200 8750 3100
Wire Wire Line
	8750 3100 9000 3100
Wire Wire Line
	8100 2850 8400 2850
Wire Wire Line
	8400 2850 8400 3300
Wire Wire Line
	8400 3300 9000 3300
Wire Wire Line
	8100 2950 8250 2950
Wire Wire Line
	8250 2950 8250 3200
Wire Wire Line
	8250 3200 9000 3200
Wire Wire Line
	8900 2900 8900 3750
Wire Wire Line
	8900 3750 8050 3750
Wire Wire Line
	8050 3750 8050 3950
Connection ~ 8050 3950
Wire Wire Line
	8050 3950 7500 3950
Wire Wire Line
	8900 2900 9000 2900
Wire Wire Line
	8100 3050 8700 3050
Wire Wire Line
	8700 3050 8700 4450
Wire Wire Line
	8700 4450 8750 4450
Wire Wire Line
	8750 4450 8750 4800
Wire Wire Line
	8150 4800 7850 4800
Wire Wire Line
	7850 4800 7850 4400
Wire Wire Line
	7850 4400 7500 4400
Connection ~ 7500 4400
Wire Wire Line
	7500 4400 7500 4500
Wire Wire Line
	7500 1700 7500 1950
$Comp
L fab:BUTTON_PTS636 SW1
U 1 1 6042B27C
P 7850 1950
F 0 "SW1" V 7804 2098 50  0000 L CNN
F 1 "BUTTON_PTS636" V 7895 2098 50  0000 L CNN
F 2 "fab:Button_C&K_PTS636_6x3.5mm" H 7850 2150 50  0001 C CNN
F 3 "https://dznh3ojzb2azq.cloudfront.net/products/Tactile/PTS636/documents/datasheet.pdf" H 7850 2150 50  0001 C CNN
	1    7850 1950
	1    0    0    -1  
$EndComp
Wire Wire Line
	7500 1950 7650 1950
Connection ~ 7500 1950
Wire Wire Line
	7500 1950 7500 2200
Wire Wire Line
	8150 3250 8100 3250
$Comp
L fab:R R2
U 1 1 60448109
P 8200 2450
F 0 "R2" H 8270 2496 50  0000 L CNN
F 1 "R" H 8270 2405 50  0000 L CNN
F 2 "fab:R_1206" V 8130 2450 50  0001 C CNN
F 3 "~" H 8200 2450 50  0001 C CNN
	1    8200 2450
	1    0    0    -1  
$EndComp
Wire Wire Line
	8200 1950 8200 2300
Wire Wire Line
	8050 1950 8200 1950
Wire Wire Line
	8150 3250 8150 2600
Wire Wire Line
	8150 2600 8200 2600
$Comp
L fab:Conn_01x03_Male J1
U 1 1 6044F8EB
P 8450 4400
F 0 "J1" V 8604 4212 50  0000 R CNN
F 1 "Conn_01x03_Male" V 8513 4212 50  0000 R CNN
F 2 "fab:Header_SMD_01x03_P2.54mm_Horizontal_Male" H 8450 4400 50  0001 C CNN
F 3 "~" H 8450 4400 50  0001 C CNN
	1    8450 4400
	0    -1   -1   0   
$EndComp
Wire Wire Line
	8550 2750 8550 4200
Wire Wire Line
	8450 3950 8450 4200
Wire Wire Line
	8350 4200 6800 4200
Wire Wire Line
	6800 4200 6800 2300
Wire Wire Line
	6800 2300 7500 2300
Connection ~ 7500 2300
Wire Wire Line
	7500 2300 7500 2350
$EndSCHEMATC
