(kicad_sch (version 20230121) (generator eeschema)

  (uuid 6c807115-5476-45ea-80dc-3a12bbdc7162)

  (paper "A4")

  (lib_symbols
    (symbol "fab:Conn_PinHeader_1x02_P2.54mm_Horizontal_SMD" (pin_names hide) (in_bom yes) (on_board yes)
      (property "Reference" "J" (at 0 2.54 0)
        (effects (font (size 1.27 1.27)))
      )
      (property "Value" "Conn_PinHeader_1x02_P2.54mm_Horizontal_SMD" (at 0 -5.08 0)
        (effects (font (size 1.27 1.27)))
      )
      (property "Footprint" "fab:PinHeader_1x02_P2.54mm_Horizontal_SMD" (at 0 0 0)
        (effects (font (size 1.27 1.27)) hide)
      )
      (property "Datasheet" "~" (at 0 0 0)
        (effects (font (size 1.27 1.27)) hide)
      )
      (property "ki_keywords" "single row male connector" (at 0 0 0)
        (effects (font (size 1.27 1.27)) hide)
      )
      (property "ki_description" "Male connector, single row" (at 0 0 0)
        (effects (font (size 1.27 1.27)) hide)
      )
      (property "ki_fp_filters" "*PinHeader*1x02*" (at 0 0 0)
        (effects (font (size 1.27 1.27)) hide)
      )
      (symbol "Conn_PinHeader_1x02_P2.54mm_Horizontal_SMD_1_1"
        (rectangle (start -1.27 -1.905) (end 1.27 -3.175)
          (stroke (width 0.254) (type default))
          (fill (type outline))
        )
        (rectangle (start -1.27 0.635) (end 1.27 -0.635)
          (stroke (width 0.254) (type default))
          (fill (type outline))
        )
        (pin passive line (at 5.08 0 180) (length 3.81)
          (name "Pin_1" (effects (font (size 1.27 1.27))))
          (number "1" (effects (font (size 1.27 1.27))))
        )
        (pin passive line (at 5.08 -2.54 180) (length 3.81)
          (name "Pin_2" (effects (font (size 1.27 1.27))))
          (number "2" (effects (font (size 1.27 1.27))))
        )
      )
    )
    (symbol "fab:LED_1206" (pin_numbers hide) (pin_names (offset 1.016) hide) (in_bom yes) (on_board yes)
      (property "Reference" "D" (at 0 2.54 0)
        (effects (font (size 1.27 1.27)))
      )
      (property "Value" "LED_1206" (at 0 -2.54 0)
        (effects (font (size 1.27 1.27)))
      )
      (property "Footprint" "fab:LED_1206" (at 0 0 0)
        (effects (font (size 1.27 1.27)) hide)
      )
      (property "Datasheet" "https://optoelectronics.liteon.com/upload/download/DS-22-98-0002/LTST-C150CKT.pdf" (at 0 0 0)
        (effects (font (size 1.27 1.27)) hide)
      )
      (property "ki_keywords" "LED diode 1206 SML-LX1206IC-TR SML-LX1206GC-TR 5988230107F 150120BS75000 QBLP650-IW HIR11-21C/L11/TR8" (at 0 0 0)
        (effects (font (size 1.27 1.27)) hide)
      )
      (property "ki_description" "Light emitting diode, Lite-On Inc. LTST, SMD" (at 0 0 0)
        (effects (font (size 1.27 1.27)) hide)
      )
      (property "ki_fp_filters" "*LED*1206*" (at 0 0 0)
        (effects (font (size 1.27 1.27)) hide)
      )
      (symbol "LED_1206_0_1"
        (polyline
          (pts
            (xy -1.27 -1.27)
            (xy -1.27 1.27)
          )
          (stroke (width 0.2032) (type default))
          (fill (type none))
        )
        (polyline
          (pts
            (xy -1.27 0)
            (xy 1.27 0)
          )
          (stroke (width 0) (type default))
          (fill (type none))
        )
        (polyline
          (pts
            (xy 1.27 -1.27)
            (xy 1.27 1.27)
            (xy -1.27 0)
            (xy 1.27 -1.27)
          )
          (stroke (width 0.2032) (type default))
          (fill (type none))
        )
        (polyline
          (pts
            (xy -3.048 -0.762)
            (xy -4.572 -2.286)
            (xy -3.81 -2.286)
            (xy -4.572 -2.286)
            (xy -4.572 -1.524)
          )
          (stroke (width 0) (type default))
          (fill (type none))
        )
        (polyline
          (pts
            (xy -1.778 -0.762)
            (xy -3.302 -2.286)
            (xy -2.54 -2.286)
            (xy -3.302 -2.286)
            (xy -3.302 -1.524)
          )
          (stroke (width 0) (type default))
          (fill (type none))
        )
      )
      (symbol "LED_1206_1_1"
        (pin passive line (at -3.81 0 0) (length 2.54)
          (name "K" (effects (font (size 1.27 1.27))))
          (number "1" (effects (font (size 1.27 1.27))))
        )
        (pin passive line (at 3.81 0 180) (length 2.54)
          (name "A" (effects (font (size 1.27 1.27))))
          (number "2" (effects (font (size 1.27 1.27))))
        )
      )
    )
    (symbol "fab:R_1206" (pin_numbers hide) (pin_names (offset 0)) (in_bom yes) (on_board yes)
      (property "Reference" "R" (at 2.54 0 90)
        (effects (font (size 1.27 1.27)))
      )
      (property "Value" "R_1206" (at -2.54 0 90)
        (effects (font (size 1.27 1.27)))
      )
      (property "Footprint" "fab:R_1206" (at 0 0 90)
        (effects (font (size 1.27 1.27)) hide)
      )
      (property "Datasheet" "~" (at 0 0 0)
        (effects (font (size 1.27 1.27)) hide)
      )
      (property "ki_keywords" "R res resistor RC1206FR-074M99L RC1206FR-07499KL RC1206FR-0749K9L RC1206FR-0749R9L RC1206FR-074R99L ERJ-8BWJR100V RC1206FR-070RL RC1206FR-071RL RC1206FR-0710RL RC1206FR-07100RL RC1206FR-07499RL RC1206FR-071KL RC1206FR-074K99L RC1206FR-0710KL RC1206FR-07100KL RC1206FR-071ML RC1206FR-0710ML PT1206FR-070R1L" (at 0 0 0)
        (effects (font (size 1.27 1.27)) hide)
      )
      (property "ki_description" "Resistor" (at 0 0 0)
        (effects (font (size 1.27 1.27)) hide)
      )
      (property "ki_fp_filters" "*R*1206*" (at 0 0 0)
        (effects (font (size 1.27 1.27)) hide)
      )
      (symbol "R_1206_0_1"
        (rectangle (start -1.016 -2.54) (end 1.016 2.54)
          (stroke (width 0.254) (type default))
          (fill (type background))
        )
      )
      (symbol "R_1206_1_1"
        (pin passive line (at 0 5.08 270) (length 2.54)
          (name "~" (effects (font (size 1.27 1.27))))
          (number "1" (effects (font (size 1.27 1.27))))
        )
        (pin passive line (at 0 -5.08 90) (length 2.54)
          (name "~" (effects (font (size 1.27 1.27))))
          (number "2" (effects (font (size 1.27 1.27))))
        )
      )
    )
    (symbol "fab:Switch_Slide_RightAngle_CnK" (pin_names (offset 0) hide) (in_bom yes) (on_board yes)
      (property "Reference" "SW" (at 0 4.318 0)
        (effects (font (size 1.27 1.27)))
      )
      (property "Value" "Switch_Slide_RightAngle_CnK" (at 0 -5.08 0)
        (effects (font (size 1.27 1.27)))
      )
      (property "Footprint" "fab:Switch_Slide_RightAngle_CnK_AYZ0102AGRLC_7.2x3mm" (at 0 0 0)
        (effects (font (size 1.27 1.27)) hide)
      )
      (property "Datasheet" "https://www.ckswitches.com/media/1431/ayz.pdf" (at 0 0 0)
        (effects (font (size 1.27 1.27)) hide)
      )
      (property "ki_keywords" "switch single-pole double-throw spdt ON-ON AYZ0102AGRLC" (at 0 0 0)
        (effects (font (size 1.27 1.27)) hide)
      )
      (property "ki_description" "Slide Switch SPDT Surface Mount, Right Angle" (at 0 0 0)
        (effects (font (size 1.27 1.27)) hide)
      )
      (property "ki_fp_filters" "*Switch*CnK?AYZ0102AGRLC*" (at 0 0 0)
        (effects (font (size 1.27 1.27)) hide)
      )
      (symbol "Switch_Slide_RightAngle_CnK_0_0"
        (circle (center -2.032 0) (radius 0.508)
          (stroke (width 0) (type default))
          (fill (type none))
        )
        (circle (center 2.032 -2.54) (radius 0.508)
          (stroke (width 0) (type default))
          (fill (type none))
        )
      )
      (symbol "Switch_Slide_RightAngle_CnK_0_1"
        (polyline
          (pts
            (xy -1.524 0.254)
            (xy 1.651 2.286)
          )
          (stroke (width 0) (type default))
          (fill (type none))
        )
        (circle (center 2.032 2.54) (radius 0.508)
          (stroke (width 0) (type default))
          (fill (type none))
        )
      )
      (symbol "Switch_Slide_RightAngle_CnK_1_1"
        (pin passive line (at 5.08 2.54 180) (length 2.54)
          (name "A" (effects (font (size 1.27 1.27))))
          (number "1" (effects (font (size 1.27 1.27))))
        )
        (pin passive line (at -5.08 0 0) (length 2.54)
          (name "B" (effects (font (size 1.27 1.27))))
          (number "2" (effects (font (size 1.27 1.27))))
        )
        (pin passive line (at 5.08 -2.54 180) (length 2.54)
          (name "C" (effects (font (size 1.27 1.27))))
          (number "3" (effects (font (size 1.27 1.27))))
        )
      )
    )
    (symbol "power:GND" (power) (pin_names (offset 0)) (in_bom yes) (on_board yes)
      (property "Reference" "#PWR" (at 0 -6.35 0)
        (effects (font (size 1.27 1.27)) hide)
      )
      (property "Value" "GND" (at 0 -3.81 0)
        (effects (font (size 1.27 1.27)))
      )
      (property "Footprint" "" (at 0 0 0)
        (effects (font (size 1.27 1.27)) hide)
      )
      (property "Datasheet" "" (at 0 0 0)
        (effects (font (size 1.27 1.27)) hide)
      )
      (property "ki_keywords" "global power" (at 0 0 0)
        (effects (font (size 1.27 1.27)) hide)
      )
      (property "ki_description" "Power symbol creates a global label with name \"GND\" , ground" (at 0 0 0)
        (effects (font (size 1.27 1.27)) hide)
      )
      (symbol "GND_0_1"
        (polyline
          (pts
            (xy 0 0)
            (xy 0 -1.27)
            (xy 1.27 -1.27)
            (xy 0 -2.54)
            (xy -1.27 -1.27)
            (xy 0 -1.27)
          )
          (stroke (width 0) (type default))
          (fill (type none))
        )
      )
      (symbol "GND_1_1"
        (pin power_in line (at 0 0 270) (length 0) hide
          (name "GND" (effects (font (size 1.27 1.27))))
          (number "1" (effects (font (size 1.27 1.27))))
        )
      )
    )
  )

  (junction (at 194.31 53.34) (diameter 0) (color 0 0 0 0)
    (uuid 2ff92114-e526-4126-b5cc-520d7f006f71)
  )

  (wire (pts (xy 186.69 53.34) (xy 194.31 53.34))
    (stroke (width 0) (type default))
    (uuid 07692b33-d795-4098-85d7-f392a8fe127a)
  )
  (wire (pts (xy 195.58 80.01) (xy 194.31 80.01))
    (stroke (width 0) (type default))
    (uuid 0b3c32b7-dde3-4236-b3b4-12a47296964e)
  )
  (wire (pts (xy 194.31 53.34) (xy 194.31 80.01))
    (stroke (width 0) (type default))
    (uuid 449ad0a8-730d-4187-8510-2196bc63e1ca)
  )
  (wire (pts (xy 191.77 77.47) (xy 195.58 77.47))
    (stroke (width 0) (type default))
    (uuid 717df5ce-0f75-4f17-a6f4-043b13dd7fd4)
  )
  (wire (pts (xy 191.77 80.01) (xy 191.77 77.47))
    (stroke (width 0) (type default))
    (uuid bcc7e176-63f8-4fdf-ab0b-3f02e91c3807)
  )
  (wire (pts (xy 194.31 53.34) (xy 195.58 53.34))
    (stroke (width 0) (type default))
    (uuid fc81f73b-fa25-42fa-abbf-872247829af5)
  )

  (global_label "LED" (shape input) (at 181.61 82.55 180) (fields_autoplaced)
    (effects (font (size 1.27 1.27)) (justify right))
    (uuid def00f84-064b-4a1b-9c0c-5a56011c60ec)
    (property "Intersheetrefs" "${INTERSHEET_REFS}" (at 175.1777 82.55 0)
      (effects (font (size 1.27 1.27)) (justify right) hide)
    )
  )
  (global_label "LED" (shape input) (at 179.07 63.5 180) (fields_autoplaced)
    (effects (font (size 1.27 1.27)) (justify right))
    (uuid eaf70267-b203-42b6-a9ae-2bb6d6f4608d)
    (property "Intersheetrefs" "${INTERSHEET_REFS}" (at 172.6377 63.5 0)
      (effects (font (size 1.27 1.27)) (justify right) hide)
    )
  )

  (symbol (lib_id "fab:R_1206") (at 179.07 58.42 0) (unit 1)
    (in_bom yes) (on_board yes) (dnp no)
    (uuid 4900383b-3bb6-47b5-978e-f10626d75439)
    (property "Reference" "R2" (at 181.61 57.15 0)
      (effects (font (size 1.27 1.27)) (justify left) hide)
    )
    (property "Value" "R_1206" (at 181.61 59.69 0)
      (effects (font (size 1.27 1.27)) (justify left) hide)
    )
    (property "Footprint" "fab:R_1206" (at 179.07 58.42 90)
      (effects (font (size 1.27 1.27)) hide)
    )
    (property "Datasheet" "~" (at 179.07 58.42 0)
      (effects (font (size 1.27 1.27)) hide)
    )
    (pin "1" (uuid f1a4560f-a59f-4dc1-9a61-02d0068f894b))
    (pin "2" (uuid 7f9aba91-4de9-4c05-a7b4-25931b95b5e8))
    (instances
      (project "demo"
        (path "/6c807115-5476-45ea-80dc-3a12bbdc7162"
          (reference "R2") (unit 1)
        )
      )
    )
  )

  (symbol (lib_id "power:GND") (at 195.58 53.34 90) (unit 1)
    (in_bom yes) (on_board yes) (dnp no) (fields_autoplaced)
    (uuid 60f576c0-a943-4481-a30d-be3d5f75e362)
    (property "Reference" "#PWR01" (at 201.93 53.34 0)
      (effects (font (size 1.27 1.27)) hide)
    )
    (property "Value" "GND" (at 199.39 53.34 90)
      (effects (font (size 1.27 1.27)) (justify right))
    )
    (property "Footprint" "" (at 195.58 53.34 0)
      (effects (font (size 1.27 1.27)) hide)
    )
    (property "Datasheet" "" (at 195.58 53.34 0)
      (effects (font (size 1.27 1.27)) hide)
    )
    (pin "1" (uuid 21cb66d1-32ba-4456-9b49-5186a45afed7))
    (instances
      (project "demo"
        (path "/6c807115-5476-45ea-80dc-3a12bbdc7162"
          (reference "#PWR01") (unit 1)
        )
      )
    )
  )

  (symbol (lib_id "fab:LED_1206") (at 182.88 53.34 180) (unit 1)
    (in_bom yes) (on_board yes) (dnp no) (fields_autoplaced)
    (uuid 9336653c-4053-4ab4-af01-6d97129e5ad5)
    (property "Reference" "D2" (at 184.4802 45.72 0)
      (effects (font (size 1.27 1.27)) hide)
    )
    (property "Value" "LED_1206" (at 184.4802 48.26 0)
      (effects (font (size 1.27 1.27)) hide)
    )
    (property "Footprint" "fab:LED_1206" (at 182.88 53.34 0)
      (effects (font (size 1.27 1.27)) hide)
    )
    (property "Datasheet" "https://optoelectronics.liteon.com/upload/download/DS-22-98-0002/LTST-C150CKT.pdf" (at 182.88 53.34 0)
      (effects (font (size 1.27 1.27)) hide)
    )
    (pin "1" (uuid 9f42570b-b619-4c65-a8b8-ff5f66336a43))
    (pin "2" (uuid 4bd6aa78-5efa-41b0-aa06-997b889a9012))
    (instances
      (project "demo"
        (path "/6c807115-5476-45ea-80dc-3a12bbdc7162"
          (reference "D2") (unit 1)
        )
      )
    )
  )

  (symbol (lib_id "fab:Conn_PinHeader_1x02_P2.54mm_Horizontal_SMD") (at 200.66 80.01 180) (unit 1)
    (in_bom yes) (on_board yes) (dnp no)
    (uuid af7272e3-8d5f-47d1-874c-41792f1b0f92)
    (property "Reference" "J2" (at 203.2 77.47 0)
      (effects (font (size 1.27 1.27)) (justify right) hide)
    )
    (property "Value" "Conn_PinHeader_1x02_P2.54mm_Horizontal_SMD" (at 203.2 80.01 0)
      (effects (font (size 1.27 1.27)) (justify right) hide)
    )
    (property "Footprint" "fab:PinHeader_1x02_P2.54mm_Horizontal_SMD" (at 200.66 80.01 0)
      (effects (font (size 1.27 1.27)) hide)
    )
    (property "Datasheet" "~" (at 200.66 80.01 0)
      (effects (font (size 1.27 1.27)) hide)
    )
    (pin "2" (uuid 208ecc4b-0cbe-43a8-bd33-a5f331dc37b4))
    (pin "1" (uuid 00224723-897a-46d3-b911-bb5fc4f09501))
    (instances
      (project "demo"
        (path "/6c807115-5476-45ea-80dc-3a12bbdc7162"
          (reference "J2") (unit 1)
        )
      )
    )
  )

  (symbol (lib_id "fab:Switch_Slide_RightAngle_CnK") (at 186.69 80.01 180) (unit 1)
    (in_bom yes) (on_board yes) (dnp no)
    (uuid cf8791b7-eef5-49b0-a251-ace8ec98e669)
    (property "Reference" "SW2" (at 186.69 72.39 0)
      (effects (font (size 1.27 1.27)) hide)
    )
    (property "Value" "Switch_Slide_RightAngle_CnK" (at 189.23 87.63 0)
      (effects (font (size 1.27 1.27)) hide)
    )
    (property "Footprint" "fab:Switch_Slide_RightAngle_CnK_AYZ0102AGRLC_7.2x3mm" (at 186.69 80.01 0)
      (effects (font (size 1.27 1.27)) hide)
    )
    (property "Datasheet" "https://www.ckswitches.com/media/1431/ayz.pdf" (at 186.69 80.01 0)
      (effects (font (size 1.27 1.27)) hide)
    )
    (pin "1" (uuid ccdb7bd1-259a-4d4c-a7ca-9f79a314842a))
    (pin "3" (uuid 5525545e-c5eb-4baa-b334-f92d8e227278))
    (pin "2" (uuid 0020feb1-790e-4bf8-9938-55ed37f7e3ab))
    (instances
      (project "demo"
        (path "/6c807115-5476-45ea-80dc-3a12bbdc7162"
          (reference "SW2") (unit 1)
        )
      )
    )
  )

  (sheet_instances
    (path "/" (page "1"))
  )
)
