%TF.GenerationSoftware,KiCad,Pcbnew,(5.1.9)-1*%
%TF.CreationDate,2023-03-01T19:59:38+02:00*%
%TF.ProjectId,mosfet_board,6d6f7366-6574-45f6-926f-6172642e6b69,rev?*%
%TF.SameCoordinates,Original*%
%TF.FileFunction,Profile,NP*%
%FSLAX46Y46*%
G04 Gerber Fmt 4.6, Leading zero omitted, Abs format (unit mm)*
G04 Created by KiCad (PCBNEW (5.1.9)-1) date 2023-03-01 19:59:38*
%MOMM*%
%LPD*%
G01*
G04 APERTURE LIST*
%TA.AperFunction,Profile*%
%ADD10C,0.100000*%
%TD*%
G04 APERTURE END LIST*
D10*
X152550000Y-79100000D02*
X152550000Y-88250000D01*
X126500000Y-79100000D02*
X152550000Y-79100000D01*
X126500000Y-88250000D02*
X126500000Y-79100000D01*
X152550000Y-88250000D02*
X126500000Y-88250000D01*
M02*
